{
	"invoices": [
		{
			"customerName": "Kalle Kallesson",
			"customerType": "BO",
			"invoiceNumber": "53626897",
			"invoiceStatus": "PAID",
			"ocrNumber": "34563457",
			"partyId": "fb2f0290-3820-11ed-a261-0242ac120002",
			"invoiceDescription": "Something Else",
			"invoiceDueDate": "${json-unit.any-string}",
			"invoiceDate": "${json-unit.any-string}",
			"paidAmount": 1500.0,
			"totalAmount": 1500.0,
			"invoiceFileName": "Faktura_53626897_to_9512245031.pdf",
			"vat": 0.0,
			"amountVatExcluded": 1500.0,
			"invoiceType": "INVOICE",
			"invoiceAddress": {
				"city": "ANKEBORG",
				"street": "Ankeborgsvägen 5 B LGH 1111",
				"postcode": "987 62",
				"careOf": ""
			}
		},
		{
			"customerName": "Kalle Kallesson",
			"customerType": "BO",
			"invoiceNumber": "53626898",
			"invoiceStatus": "PARTIALLY_PAID",
			"ocrNumber": "34563458",
			"partyId": "fb2f0290-3820-11ed-a261-0242ac120002",
			"invoiceDescription": "Something Else",
			"invoiceDueDate": "${json-unit.any-string}",
			"invoiceDate": "${json-unit.any-string}",
			"paidAmount": 740.0,
			"totalAmount": 1500.0,
			"invoiceFileName": "Faktura_53626898_to_9512245031.pdf",
			"vat": 0.0,
			"amountVatExcluded": 1500.0,
			"invoiceType": "INVOICE",
			"invoiceAddress": {
				"city": "ANKEBORG",
				"street": "Ankeborgsvägen 5 B LGH 1111",
				"postcode": "987 62",
				"careOf": ""
			}
		},
		{
			"customerName": "Kalle Kallesson",
			"customerType": "BO",
			"invoiceNumber": "53626899",
			"invoiceStatus": "PAID_TOO_MUCH",
			"ocrNumber": "34563459",
			"partyId": "fb2f0290-3820-11ed-a261-0242ac120002",
			"invoiceDescription": "",
			"invoiceDueDate": "${json-unit.any-string}",
			"invoiceDate": "${json-unit.any-string}",
			"paidAmount": 1600.0,
			"totalAmount": 1500.0,
			"invoiceFileName": "Faktura_53626899_to_9512245031.pdf",
			"vat": 0.0,
			"amountVatExcluded": 1500.0,
			"invoiceType": "INVOICE",
			"invoiceAddress": {
				"city": "ANKEBORG",
				"street": "Ankeborgsvägen 5 B LGH 1111",
				"postcode": "987 62",
				"careOf": ""
			}
		},
		{
			"customerName": "Kalle Kallesson",
			"customerType": "BO",
			"invoiceNumber": "53626800",
			"invoiceStatus": "UNPAID",
			"ocrNumber": "34563460",
			"partyId": "fb2f0290-3820-11ed-a261-0242ac120002",
			"invoiceDescription": "Something Else",
			"invoiceDueDate": "${json-unit.any-string}",
			"invoiceDate": "${json-unit.any-string}",
			"paidAmount": 0.0,
			"totalAmount": 1500.0,
			"invoiceFileName": "Faktura_53626800_to_9512245031.pdf",
			"vat": 300.0,
			"amountVatExcluded": 1200.0,
			"invoiceType": "INVOICE",
			"invoiceAddress": {
				"city": "ANKEBORG",
				"street": "Ankeborgsvägen 5 B LGH 1111",
				"postcode": "987 62",
				"careOf": ""
			}
		},
		{
			"customerName": "Kalle Kallesson",
			"customerType": "BO",
			"invoiceNumber": "53626801",
			"invoiceStatus": "UNPAID",
			"ocrNumber": "34563461",
			"partyId": "fb2f0290-3820-11ed-a261-0242ac120002",
			"invoiceDescription": "Something Else",
			"invoiceDueDate": "${json-unit.any-string}",
			"invoiceDate": "${json-unit.any-string}",
			"paidAmount": 0.0,
			"totalAmount": 1500.0,
			"invoiceFileName": "Faktura_53626801_to_9512245031.pdf",
			"vat": 300.0,
			"amountVatExcluded": 1200.0,
			"invoiceType": "INVOICE",
			"invoiceAddress": {
				"city": "ANKEBORG",
				"street": "Ankeborgsvägen 5 B LGH 1111",
				"postcode": "987 62",
				"careOf": ""
			}
		},
		{
			"customerName": "Kalle Kallesson",
			"customerType": "BO",
			"invoiceNumber": "53626802",
			"invoiceStatus": "PAID",
			"ocrNumber": "34563462",
			"partyId": "fb2f0290-3820-11ed-a261-0242ac120002",
			"invoiceDescription": "Something Else",
			"invoiceDueDate": "${json-unit.any-string}",
			"invoiceDate": "${json-unit.any-string}",
			"paidAmount": 1500.0,
			"totalAmount": 1500.0,
			"invoiceFileName": "Faktura_53626802_to_9512245031.pdf",
			"vat": 300.0,
			"amountVatExcluded": 1200.0,
			"invoiceType": "CREDIT_INVOICE",
			"invoiceAddress": {
				"city": "ANKEBORG",
				"street": "Ankeborgsvägen 5 B LGH 1111",
				"postcode": "987 62",
				"careOf": ""
			}
		},
		{
			"customerName": "Kalle Kallesson",
			"customerType": "BO",
			"invoiceNumber": "53626803",
			"invoiceStatus": "UNPAID",
			"ocrNumber": "34563463",
			"partyId": "fb2f0290-3820-11ed-a261-0242ac120002",
			"invoiceDescription": "Something Else",
			"invoiceDueDate": "${json-unit.any-string}",
			"invoiceDate": "${json-unit.any-string}",
			"paidAmount": 0.0,
			"totalAmount": 1500.0,
			"invoiceFileName": "Faktura_53626803_to_9512245031.pdf",
			"vat": 300.0,
			"amountVatExcluded": 1200.0,
			"invoiceType": "CREDIT_INVOICE",
			"invoiceAddress": {
				"city": "ANKEBORG",
				"street": "Ankeborgsvägen 5 B LGH 1111",
				"postcode": "987 62",
				"careOf": ""
			}
		},
		{
			"customerName": "Kalle Kallesson",
			"customerType": "BO",
			"invoiceNumber": "53626804",
			"invoiceStatus": "UNPAID",
			"ocrNumber": "34563464",
			"partyId": "fb2f0290-3820-11ed-a261-0242ac120002",
			"invoiceDescription": "",
			"invoiceDueDate": "${json-unit.any-string}",
			"invoiceDate": "${json-unit.any-string}",
			"paidAmount": 0.0,
			"totalAmount": 1500.0,
			"invoiceFileName": "Faktura_53626804_to_9512245031.pdf",
			"vat": 300.0,
			"amountVatExcluded": 1200.0,
			"invoiceType": "INVOICE",
			"invoiceAddress": {
				"city": "ANKEBORG",
				"street": "Ankeborgsvägen 5 B LGH 1111",
				"postcode": "987 62",
				"careOf": ""
			}
		},
		{
			"customerName": "Kalle Kallesson",
			"customerType": "BO",
			"invoiceNumber": "53626805",
			"invoiceStatus": "UNPAID",
			"ocrNumber": "34563465",
			"partyId": "fb2f0290-3820-11ed-a261-0242ac120002",
			"invoiceDescription": "Something Else",
			"invoiceDueDate": "${json-unit.any-string}",
			"invoiceDate": "${json-unit.any-string}",
			"paidAmount": 0.0,
			"totalAmount": 1500.0,
			"invoiceFileName": "Faktura_53626805_to_9512245031.pdf",
			"vat": 0.0,
			"amountVatExcluded": 1500.0,
			"invoiceType": "INVOICE",
			"invoiceAddress": {
				"city": "ANKEBORG",
				"street": "Ankeborgsvägen 5 B LGH 1111",
				"postcode": "987 62",
				"careOf": ""
			}
		},
		{
			"customerName": "Kalle Kallesson",
			"customerType": "BO",
			"invoiceNumber": "53626806",
			"invoiceStatus": "UNPAID",
			"ocrNumber": "34563466",
			"partyId": "fb2f0290-3820-11ed-a261-0242ac120002",
			"invoiceDescription": "Something Else",
			"invoiceDueDate": "${json-unit.any-string}",
			"invoiceDate": "${json-unit.any-string}",
			"paidAmount": 0.0,
			"totalAmount": 1500.0,
			"invoiceFileName": "Faktura_53626806_to_9512245031.pdf",
			"vat": 0.0,
			"amountVatExcluded": 1500.0,
			"invoiceType": "INVOICE",
			"invoiceAddress": {
				"city": "ANKEBORG",
				"street": "Ankeborgsvägen 5 B LGH 1111",
				"postcode": "987 62",
				"careOf": ""
			}
		}
	],
	"_meta": {
		"page": 1,
		"limit": 10,
		"count": 10,
		"totalRecords": 12,
		"totalPages": 2
	}
}